{
  "wallMatrix": [
    [1, 1, 1, 1, 1, 1, 1, 1, 1, 1],
    [1, 0, 0, 0, 0, 0, 0, 0, 0, 1],
    [1, 0, 1, 1, 0, 0, 1, 1, 0, 1],
    [1, 0, 1, 0, 0, 0, 0, 1, 0, 1],
    [1, 0, 0, 0, 1, 1, 0, 0, 0, 1],
    [1, 0, 0, 0, 1, 0, 0, 0, 0, 1],
    [1, 0, 1, 0, 0, 0, 0, 1, 0, 1],
    [1, 0, 1, 1, 0, 0, 1, 1, 0, 1],
    [1, 0, 0, 0, 0, 0, 0, 0, 0, 1],
    [1, 1, 1, 1, 1, 1, 1, 1, 1, 1]
  ],
  "itemMatrix": [
    [0, 0, 0, 0, 0, 0, 0, 0, 0, 0],
    [0, 2, 0, 0, 0, 0, 0, 0, 2, 0],
    [0, 0, 0, 0, 0, 0, 0, 0, 0, 0],
    [0, 0, 0, 2, 0, 0, 2, 0, 0, 0],
    [0, 0, 0, 0, 0, 0, 0, 0, 0, 0],
    [0, 0, 0, 0, 0, 1, 0, 0, 0, 0],
    [0, 0, 0, 2, 0, 0, 2, 0, 0, 0],
    [0, 0, 0, 0, 0, 0, 0, 0, 0, 0],
    [0, 2, 0, 0, 0, 0, 0, 0, 2, 0],
    [0, 0, 0, 0, 0, 0, 0, 0, 0, 0]
  ],
  "enimies": [
    {
      "startX": 8,
      "startY": 1,
      "type": 2,
      "walktype": "lr",
      "speed": 600,
      "animSpeed": 8
    },
    {
      "startX": 1,
      "startY": 8,
      "type": 2,
      "walktype": "rl",
      "speed": 600,
      "animSpeed": 8
    },
    {
      "startX": 1,
      "startY": 1,
      "type": 1,
      "walktype": "du",
      "speed": 500,
      "animSpeed": 8
    },
    {
      "startX": 8,
      "startY": 8,
      "type": 1,
      "walktype": "ud",
      "speed": 500,
      "animSpeed": 8
    },
    {
      "startX": 3,
      "startY": 3,
      "type": 1,
      "walktype": "du",
      "speed": 700,
      "animSpeed": 8
    },
    {
      "startX": 6,
      "startY": 6,
      "type": 1,
      "walktype": "ud",
      "speed": 700,
      "animSpeed": 8
    },
    {
      "startX": 6,
      "startY": 3,
      "type": 2,
      "walktype": "lr",
      "speed": 700,
      "animSpeed": 8
    },
    {
      "startX": 3,
      "startY": 6,
      "type": 2,
      "walktype": "rl",
      "speed": 700,
      "animSpeed": 8
    }
  ],
  "startpoint": [
    {
      "startX": 4,
      "startY": 7
    }
  ],
  "general":
  {
    "mission": "Mit 5 Diamanten kommst Du durch - gerate nicht in eine Zwickm&uuml;hle!",
    "leveltiming": 60,
    "animSpeed": 4,
    "timejudgement": true,
    "diamondsneeded": 5
  }
}